digraph "/home/max/Documents/Travail/ISIMA/S2/Structure de Donnees/TP/TP2/git/master/isima-sdd-tp2/Code/src/cnp.h"
{
  edge [fontname="Helvetica",fontsize="10",labelfontname="Helvetica",labelfontsize="10"];
  node [fontname="Helvetica",fontsize="10",shape=record];
  Node1 [label="/home/max/Documents\l/Travail/ISIMA/S2/Structure\l de Donnees/TP/TP2/git/master\l/isima-sdd-tp2/Code/src/cnp.h",height=0.2,width=0.4,color="black", fillcolor="grey75", style="filled", fontcolor="black"];
  Node1 -> Node2 [dir="back",color="midnightblue",fontsize="10",style="solid"];
  Node2 [label="/home/max/Documents\l/Travail/ISIMA/S2/Structure\l de Donnees/TP/TP2/git/master\l/isima-sdd-tp2/Code/src/cnp.c",height=0.2,width=0.4,color="black", fillcolor="white", style="filled",URL="$cnp_8c.html"];
  Node1 -> Node3 [dir="back",color="midnightblue",fontsize="10",style="solid"];
  Node3 [label="/home/max/Documents\l/Travail/ISIMA/S2/Structure\l de Donnees/TP/TP2/git/master\l/isima-sdd-tp2/Code/src/main.c",height=0.2,width=0.4,color="black", fillcolor="white", style="filled",URL="$main_8c.html"];
}
