digraph "/home/max/Documents/Travail/ISIMA/S2/Structure de Donnees/TP/TP2/git/master/isima-sdd-tp2/Code/src/stack.h"
{
  edge [fontname="Helvetica",fontsize="10",labelfontname="Helvetica",labelfontsize="10"];
  node [fontname="Helvetica",fontsize="10",shape=record];
  Node3 [label="/home/max/Documents\l/Travail/ISIMA/S2/Structure\l de Donnees/TP/TP2/git/master\l/isima-sdd-tp2/Code/src/stack.h",height=0.2,width=0.4,color="black", fillcolor="grey75", style="filled", fontcolor="black"];
  Node3 -> Node4 [dir="back",color="midnightblue",fontsize="10",style="solid"];
  Node4 [label="/home/max/Documents\l/Travail/ISIMA/S2/Structure\l de Donnees/TP/TP2/git/master\l/isima-sdd-tp2/Code/src/cnp.c",height=0.2,width=0.4,color="black", fillcolor="white", style="filled",URL="$cnp_8c.html"];
  Node3 -> Node5 [dir="back",color="midnightblue",fontsize="10",style="solid"];
  Node5 [label="/home/max/Documents\l/Travail/ISIMA/S2/Structure\l de Donnees/TP/TP2/git/master\l/isima-sdd-tp2/Code/src/main.c",height=0.2,width=0.4,color="black", fillcolor="white", style="filled",URL="$main_8c.html"];
  Node3 -> Node6 [dir="back",color="midnightblue",fontsize="10",style="solid"];
  Node6 [label="/home/max/Documents\l/Travail/ISIMA/S2/Structure\l de Donnees/TP/TP2/git/master\l/isima-sdd-tp2/Code/src/stack.c",height=0.2,width=0.4,color="black", fillcolor="white", style="filled",URL="$stack_8c.html"];
  Node3 -> Node7 [dir="back",color="midnightblue",fontsize="10",style="solid"];
  Node7 [label="/home/max/Documents\l/Travail/ISIMA/S2/Structure\l de Donnees/TP/TP2/git/master\l/isima-sdd-tp2/Code/src/test.c",height=0.2,width=0.4,color="black", fillcolor="white", style="filled",URL="$test_8c.html"];
}
