digraph "/home/max/Documents/Travail/ISIMA/S2/Structure de Donnees/TP/TP2/git/master/isima-sdd-tp2/Code/src/pile.h"
{
  edge [fontname="Helvetica",fontsize="10",labelfontname="Helvetica",labelfontsize="10"];
  node [fontname="Helvetica",fontsize="10",shape=record];
  Node0 [label="/home/max/Documents\l/Travail/ISIMA/S2/Structure\l de Donnees/TP/TP2/git/master\l/isima-sdd-tp2/Code/src/pile.h",height=0.2,width=0.4,color="black", fillcolor="grey75", style="filled", fontcolor="black"];
  Node0 -> Node1 [color="midnightblue",fontsize="10",style="solid",fontname="Helvetica"];
  Node1 [label="error.h",height=0.2,width=0.4,color="black", fillcolor="white", style="filled",URL="$error_8h.html"];
  Node0 -> Node2 [color="midnightblue",fontsize="10",style="solid",fontname="Helvetica"];
  Node2 [label="bool.h",height=0.2,width=0.4,color="black", fillcolor="white", style="filled",URL="$bool_8h.html"];
}
